
<svg xmlns="http://www.w3.org/2000/svg" version="1.1" xmlns:xlink="http://www.w3.org/1999/xlink" preserveAspectRatio="none" x="0px" y="0px" width="30px" height="30px" viewBox="0 0 30 30">
<defs>
<g id="Layer1_0_FILL">
<path fill="#1B1D1F" stroke="none" d="
M 23.4 2.55
Q 22.2 1.75 20.85 1.2 19.5 0.6 18.05 0.3 16.55 0 15 0 13.45 0 11.95 0.3 10.5 0.6 9.15 1.2 7.8 1.75 6.65 2.55 5.4 3.35 4.4 4.4 3.35 5.4 2.55 6.65 1.75 7.8 1.2 9.15 0.6 10.5 0.3 11.95 0 13.45 0 15 0 16.55 0.3 18.05 0.6 19.5 1.2 20.85 1.75 22.2 2.55 23.4 3.35 24.6 4.4 25.6 5.4 26.65 6.65 27.45 7.8 28.25 9.15 28.8 10.5 29.4 11.95 29.7 13.45 30 15 30 16.55 30 18.05 29.7 19.5 29.4 20.85 28.8 22.2 28.25 23.4 27.45 24.6 26.65 25.6 25.6 26.65 24.6 27.45 23.4 28.25 22.2 28.8 20.85 29.4 19.5 29.7 18.05 30 16.55 30 15 30 13.45 29.7 11.95 29.4 10.5 28.8 9.15 28.25 7.8 27.45 6.65 26.65 5.4 25.6 4.4 24.6 3.35 23.4 2.55 Z"/>
</g>

<g id="Layer0_0_FILL">
<path fill="#FFFFFF" stroke="none" d="
M 10.1 12.2
L 7.3 12.2 7.3 17.85 10.1 17.85 10.1 12.2
M 15.1 9.1
L 11.05 12.2 11.05 17.85 15.1 20.95 15.1 9.1
M 17.55 11.45
Q 17.35 11.5 17.2 11.6 17.05 11.75 17 11.95 16.95 12.15 17 12.35 17.05 12.55 17.2 12.65 17.55 13.05 17.8 13.55 18.05 13.95 18.1 14.5 18.2 15 18.1 15.45 18.05 16 17.8 16.45 17.55 16.9 17.2 17.3 17.05 17.45 17 17.65 16.95 17.8 17 18 17.05 18.2 17.2 18.35 17.3 18.45 17.45 18.5 17.55 18.55 17.7 18.55 17.9 18.55 18 18.5 18.15 18.45 18.3 18.35 18.7 17.9 19.05 17.35 19.35 16.8 19.5 16.2 19.65 15.6 19.65 15 19.65 14.35 19.5 13.8 19.35 13.2 19.05 12.65 18.7 12.1 18.3 11.6 18.1 11.5 17.9 11.45 17.7 11.35 17.55 11.45
M 20.9 10.2
Q 20.75 10.05 20.55 10.05 20.4 9.95 20.2 10.05 20 10.05 19.85 10.2 19.7 10.35 19.65 10.55 19.6 10.75 19.65 10.95 19.7 11.15 19.85 11.25 20.35 11.8 20.7 12.4 21.05 13 21.25 13.65 21.4 14.35 21.4 15 21.4 15.65 21.25 16.3 21.05 16.95 20.7 17.55 20.35 18.2 19.85 18.7 19.7 18.85 19.65 19.05 19.6 19.2 19.65 19.4 19.7 19.6 19.85 19.8 19.95 19.9 20.1 19.95 20.25 19.95 20.4 19.95 20.55 19.95 20.7 19.95 20.8 19.9 20.9 19.8 21.55 19.15 22 18.35 22.45 17.6 22.65 16.75 22.9 15.9 22.9 15 22.9 14.1 22.65 13.2 22.45 12.4 22 11.6 21.55 10.85 20.9 10.2 Z"/>
</g>
</defs>

<g transform="matrix( 1, 0, 0, 1, 0,0) ">
<use xlink:href="#Layer1_0_FILL"/>
</g>

<g transform="matrix( 1, 0, 0, 1, 0,0) ">
<use xlink:href="#Layer0_0_FILL"/>
</g>
</svg>
