
<svg xmlns="http://www.w3.org/2000/svg" version="1.1" xmlns:xlink="http://www.w3.org/1999/xlink" preserveAspectRatio="none" x="0px" y="0px" width="20px" height="20px" viewBox="0 0 30 30">
<defs>
<g id="Layer1_0_FILL" opacity="0.7">
<path fill="#FFFFFF" stroke="none" d="
M 15 30
Q 21.2 30 25.55 25.55 30 21.2 30 15 30 8.8 25.55 4.35 21.2 0 15 0 8.8 0 4.4 4.35 0 8.8 0 15 0 21.2 4.4 25.55 8.8 30 15 30 Z"/>
</g>

<g id="Layer0_0_FILL">
<path fill="#000000" stroke="none" d="
M 21.05 18.55
Q 21.5 17.85 21.7 16.9 22 16.05 22 15.1
L 19.9 15.1
Q 19.9 15.75 19.75 16.35 19.6 16.95 19.25 17.5 18.95 18.05 18.5 18.5 18 18.95 17.55 19.3 17 19.6 16.3 19.7 15.7 19.95 15.1 19.95 14.5 19.95 13.85 19.7 13.25 19.6 12.7 19.3 12.2 18.95 11.7 18.5 11.2 18.05 10.95 17.5 10.6 16.95 10.45 16.35 10.3 15.75 10.3 15.1 10.3 14.45 10.45 13.9 10.6 13.3 10.95 12.75 11.2 12.15 11.7 11.7 12.2 11.25 12.7 10.9 13.25 10.65 13.85 10.5 14.5 10.3 15.1 10.25
L 15.1 11.7 18.2 9.25 15.1 6.8 15.1 8.2
Q 14.1 8.2 13.25 8.5 12.4 8.7 11.6 9.2 10.85 9.65 10.2 10.25 9.6 10.85 9.15 11.65 8.75 12.4 8.5 13.3 8.25 14.15 8.25 15.1 8.25 16.05 8.5 16.9 8.75 17.85 9.15 18.55 9.6 19.35 10.2 19.95 10.85 20.6 11.6 21.05 12.4 21.5 13.25 21.75 14.1 22.05 15.1 22.05 16.05 22.05 16.9 21.75 17.8 21.5 18.55 21.05 19.35 20.6 19.95 19.95 20.6 19.35 21.05 18.55 Z"/>
</g>
</defs>

<g transform="matrix( 1, 0, 0, 1, 0,0) ">
<use xlink:href="#Layer1_0_FILL"/>
</g>

<g transform="matrix( 1, 0, 0, 1, 0,0) ">
<use xlink:href="#Layer0_0_FILL"/>
</g>
</svg>
