
<svg xmlns="http://www.w3.org/2000/svg" version="1.1" xmlns:xlink="http://www.w3.org/1999/xlink" preserveAspectRatio="none" x="0px" y="0px" width="30px" height="30px" viewBox="0 0 30 30">
<defs>
<g id="Layer1_0_FILL">
<path fill="#1B1D1F" stroke="none" d="
M 23.4 2.55
Q 22.2 1.75 20.85 1.2 19.5 0.6 18.05 0.3 16.55 0 15 0 13.45 0 11.95 0.3 10.5 0.6 9.15 1.2 7.8 1.75 6.65 2.55 5.4 3.35 4.4 4.4 3.35 5.4 2.55 6.65 1.75 7.8 1.2 9.15 0.6 10.5 0.3 11.95 0 13.45 0 15 0 16.55 0.3 18.05 0.6 19.5 1.2 20.85 1.75 22.2 2.55 23.4 3.35 24.6 4.4 25.6 5.4 26.65 6.65 27.45 7.8 28.25 9.15 28.8 10.5 29.4 11.95 29.7 13.45 30 15 30 16.55 30 18.05 29.7 19.5 29.4 20.85 28.8 22.2 28.25 23.4 27.45 24.6 26.65 25.6 25.6 26.65 24.6 27.45 23.4 28.25 22.2 28.8 20.85 29.4 19.5 29.7 18.05 30 16.55 30 15 30 13.45 29.7 11.95 29.4 10.5 28.8 9.15 28.25 7.8 27.45 6.65 26.65 5.4 25.6 4.4 24.6 3.35 23.4 2.55 Z"/>
</g>

<g id="Layer0_0_FILL">
<path fill="#FFFFFF" stroke="none" d="
M 18.85 20
L 18.85 10.05 16.05 10.05 16.05 20 18.85 20
M 14.15 20
L 14.15 10.05 11.35 10.05 11.35 20 14.15 20 Z"/>
</g>
</defs>

<g transform="matrix( 1, 0, 0, 1, 0,0) ">
<use xlink:href="#Layer1_0_FILL"/>
</g>

<g transform="matrix( 1, 0, 0, 1, 0,0) ">
<use xlink:href="#Layer0_0_FILL"/>
</g>
</svg>
