
<svg xmlns="http://www.w3.org/2000/svg" version="1.1" xmlns:xlink="http://www.w3.org/1999/xlink" preserveAspectRatio="none" x="0px" y="0px" width="30px" height="30px" viewBox="0 0 30 30">
<defs>
<g id="Layer1_0_FILL">
<path fill="#1B1D1F" stroke="none" d="
M 30 15
Q 30 8.8 25.55 4.35 21.2 0 15 0 8.8 0 4.4 4.35 0 8.8 0 15 0 21.2 4.4 25.55 8.8 30 15 30 21.2 30 25.55 25.55 30 21.2 30 15
M 11.05 12.2
L 15.1 9.1 15.1 20.95 11.05 17.85 11.05 12.2
M 7.3 12.2
L 10.1 12.2 10.1 17.85 7.3 17.85 7.3 12.2 Z"/>
</g>

<g id="Layer0_0_FILL">
<path fill="#FFFFFF" stroke="none" d="
M 22.9 13.15
Q 23 13 23 12.85 23 12.6 22.8 12.45 22.55 12.3 22.2 12.3 21.9 12.3 21.7 12.45 21.5 12.55 21.2 12.9
L 20.1 14.15 18.95 12.9
Q 18.65 12.6 18.45 12.45 18.25 12.3 17.95 12.3 17.6 12.3 17.35 12.45 17.15 12.6 17.15 12.85 17.15 13.1 17.5 13.5
L 18.95 15.05 17.3 16.9
Q 16.95 17.3 16.95 17.5 16.95 17.75 17.2 17.9 17.45 18.1 17.75 18.1 18.1 18.1 18.3 17.95 18.45 17.8 18.75 17.5
L 20.1 16 21.35 17.5
Q 21.65 17.8 21.85 17.95 22.05 18.1 22.35 18.1 22.7 18.1 22.95 17.9 23.2 17.75 23.2 17.55 23.2 17.3 22.8 16.9
L 21.2 15.05 22.65 13.5 22.9 13.15
M 10.1 12.2
L 7.3 12.2 7.3 17.85 10.1 17.85 10.1 12.2
M 15.1 9.1
L 11.05 12.2 11.05 17.85 15.1 20.95 15.1 9.1 Z"/>
</g>
</defs>

<g transform="matrix( 1, 0, 0, 1, 0,0) ">
<use xlink:href="#Layer1_0_FILL"/>
</g>

<g transform="matrix( 1, 0, 0, 1, 0,0) ">
<use xlink:href="#Layer0_0_FILL"/>
</g>
</svg>
