
<svg xmlns="http://www.w3.org/2000/svg" version="1.1" xmlns:xlink="http://www.w3.org/1999/xlink" preserveAspectRatio="none" x="0px" y="0px" width="70px" height="70px" viewBox="0 0 70 70">
<defs>
<g id="Layer1_0_FILL">
<path fill="#1B1D1F" fill-opacity="0.6980392156862745" stroke="none" d="
M 67.25 21.35
Q 65.95 18.25 64 15.45 62.15 12.6 59.8 10.2 57.4 7.85 54.6 6 51.75 4.05 48.65 2.75 45.5 1.4 42.1 0.75 38.6 0 35 0 31.4 0 27.9 0.75 24.5 1.4 21.35 2.75 18.25 4.05 15.45 6 12.6 7.85 10.2 10.2 7.85 12.6 6 15.45 4.05 18.25 2.75 21.35 1.4 24.5 0.75 27.9 0 31.4 0 35 0 38.6 0.75 42.1 1.4 45.5 2.75 48.65 4.05 51.75 6 54.6 7.85 57.4 10.2 59.8 12.6 62.15 15.45 64 18.25 65.95 21.35 67.25 24.5 68.6 27.9 69.25 31.4 70 35 70 38.6 70 42.1 69.25 45.5 68.6 48.65 67.25 51.75 65.95 54.6 64 57.4 62.15 59.8 59.8 62.15 57.4 64 54.6 65.95 51.75 67.25 48.65 68.6 45.5 69.25 42.1 70 38.6 70 35 70 31.4 69.25 27.9 68.6 24.5 67.25 21.35 Z"/>
</g>

<g id="Layer0_0_FILL">
<path fill="#FFFFFF" stroke="none" d="
M 29.4 22.65
L 29.4 47.45 45.4 35.1 29.4 22.65 Z"/>
</g>
</defs>

<g transform="matrix( 1, 0, 0, 1, 0,0) ">
<use xlink:href="#Layer1_0_FILL"/>
</g>

<g transform="matrix( 1, 0, 0, 1, 0,0) ">
<use xlink:href="#Layer0_0_FILL"/>
</g>
</svg>
